…
    #> # A tibble: 32 x 5
    #>    colour      x     y PANEL group
    #>    <chr>   <dbl> <dbl> <fct> <int>
    #>  1 #30648F     6  21   1        -1
    #>  2 #30648F     6  21   1        -1
    #>  3 #356E9D     4  22.8 1        -1
    #>  4 #316692     6  21.4 1        -1
    #>  5 #29577E     8  18.7 1        -1
    #>  6 #275379     6  18.1 1        -1
    #>  7 #1D3F5E     8  14.3 1        -1
    #>  8 #3977A9     4  24.4 1        -1
    #>  9 #356E9D     4  22.8 1        -1
    #> 10 #2A5982     6  19.2 1        -1
    #> # ... with 22 more rows
…
    #> [1] "Input 'data' to 'compute_panel()':"
    #> # A tibble: 32 x 5
    #>        x     y colour PANEL group
    #>    <dbl> <dbl> <fct>  <fct> <int>
    #>  1     6  21   6      1         2
    #>  2     6  21   6      1         2
    #>  3     4  22.8 4      1         1
    #>  4     6  21.4 6      1         2
    #>  5     8  18.7 8      1         3
    #>  6     6  18.1 6      1         2
    #>  7     8  14.3 8      1         3
    #>  8     4  24.4 4      1         1
    #>  9     4  22.8 4      1         1
    #> 10     6  19.2 6      1         2
    #> # ... with 22 more rows
…
