User Guide: 1 Debugging ggplots
…
Both geoms and stats can have either panel- or group functions. Panel functions receive as input the subset of the data that corresponds to a whole panel, mapped to the aesthetics and with factors indicating the grouping (set by the user by mapping to a discrete scale). Group functions receive as input the subset of data correspoding to a single group based on the mapping.

The motivation for writing the “debug” stats and geoms included in package ‘gginnards’ is that at the moment it is in many cases not possible to set breakpoints inside the code of stats and geoms, because frequently nameless panel and group functions are stored in list-like objects used to store the definitions of geoms and stats.

This can make it tedious to analyze how these functions work, as one may need to add print statements to their source code to see the data. I wrote the “debug” stats and geoms as tools to help in the development of my packages ‘ggpmisc’ and ‘ggspectra’, and as a way of learning myself how data are passed around within the different components of a ggplot object when it is printed.

The stats described in this vignette are very simple and print a summary of their data input by default to the console, but the function used to dispaly the data can be passed as an argument, adding flexibility. The debug stats, in addition return a data frame containing labels suitable for plotting with geom “text” or geom “label”. However, as default geom “null” is used, they do not alter the plot itself unless a different geom is explicitly passed as argument.

Because of the way ‘ggplot2’ works, the values are listed to the console at the time when the ggplot object is printed. As shown here, no other geom or stat is required, however in the remaining examples we add geom_point() to make the data also visible in the plot.

ggplot(my.data, aes(x, y)) + stat_debug_group()

## [1] "Input 'data' to 'compute_group()':"
## # A tibble: 100 x 4
##        x        y PANEL group
##  * <dbl>    <dbl> <fct> <int>
##  1     1  -27205. 1        -1
##  2     2  -14243. 1        -1
##  3     3   45791. 1        -1
##  4     4   53731. 1        -1
##  5     5   -8029. 1        -1
##  6     6  102864. 1        -1
##  7     7  -18547. 1        -1
##  8     8   13081. 1        -1
##  9     9   79924. 1        -1
## 10    10  -44711. 1        -1
## # ... with 90 more rows
…
In the absence of facets or groups we get just get the summary from one data frame.

ggplot(my.data, aes(x, y)) + geom_point() + stat_debug_group()

## [1] "Input 'data' to 'compute_group()':"
## # A tibble: 100 x 4
##        x        y PANEL group
##  * <dbl>    <dbl> <fct> <int>
##  1     1  -27205. 1        -1
##  2     2  -14243. 1        -1
##  3     3   45791. 1        -1
##  4     4   53731. 1        -1
##  5     5   -8029. 1        -1
##  6     6  102864. 1        -1
##  7     7  -18547. 1        -1
##  8     8   13081. 1        -1
##  9     9   79924. 1        -1
## 10    10  -44711. 1        -1
## # ... with 90 more rows
…
ggplot(my.data, aes(x, y)) + geom_point() + stat_debug_panel()

## [1] "Input 'data' to 'compute_panel()':"
## # A tibble: 100 x 4
##        x        y PANEL group
##    <dbl>    <dbl> <fct> <int>
##  1     1  -27205. 1        -1
##  2     2  -14243. 1        -1
##  3     3   45791. 1        -1
##  4     4   53731. 1        -1
##  5     5   -8029. 1        -1
##  6     6  102864. 1        -1
##  7     7  -18547. 1        -1
##  8     8   13081. 1        -1
##  9     9   79924. 1        -1
## 10    10  -44711. 1        -1
## # ... with 90 more rows
…
In the case of grouping then one data frame is summarized for each group in the ggplot object.

ggplot(my.data, aes(x, y, colour = group)) + geom_point() + 
  stat_debug_group()

## [1] "Input 'data' to 'compute_group()':"
## # A tibble: 50 x 5
##        x       y colour PANEL group
##  * <dbl>   <dbl> <fct>  <fct> <int>
##  1     1 -27205. A      1         1
##  2     3  45791. A      1         1
##  3     5  -8029. A      1         1
##  4     7 -18547. A      1         1
##  5     9  79924. A      1         1
##  6    11  -2824. A      1         1
##  7    13 -78017. A      1         1
##  8    15 -74281. A      1         1
##  9    17   9904. A      1         1
## 10    19 -94023. A      1         1
## # ... with 40 more rows
## [1] "Input 'data' to 'compute_group()':"
## # A tibble: 50 x 5
##        x        y colour PANEL group
##  * <dbl>    <dbl> <fct>  <fct> <int>
##  1     2  -14243. B      1         2
##  2     4   53731. B      1         2
##  3     6  102864. B      1         2
##  4     8   13081. B      1         2
##  5    10  -44711. B      1         2
##  6    12   23840. B      1         2
##  7    14   75602. B      1         2
##  8    16  104677. B      1         2
##  9    18  -68747. B      1         2
## 10    20  -39230. B      1         2
## # ... with 40 more rows
…
Without facets, we still have only one panel.

ggplot(my.data, aes(x, y, colour = group)) + geom_point() + 
  stat_debug_panel()

## [1] "Input 'data' to 'compute_panel()':"
## # A tibble: 100 x 5
##        x        y colour PANEL group
##    <dbl>    <dbl> <fct>  <fct> <int>
##  1     1  -27205. A      1         1
##  2     2  -14243. B      1         2
##  3     3   45791. A      1         1
##  4     4   53731. B      1         2
##  5     5   -8029. A      1         1
##  6     6  102864. B      1         2
##  7     7  -18547. A      1         1
##  8     8   13081. B      1         2
##  9     9   79924. A      1         1
## 10    10  -44711. B      1         2
## # ... with 90 more rows
…
The data are similar, except for the column named after the aesthetic, for the aesthetics used for grouping.

ggplot(my.data, aes(x, y, shape = group)) + geom_point() + 
  stat_debug_group()

## [1] "Input 'data' to 'compute_group()':"
## # A tibble: 50 x 5
##        x       y shape PANEL group
##  * <dbl>   <dbl> <fct> <fct> <int>
##  1     1 -27205. A     1         1
##  2     3  45791. A     1         1
##  3     5  -8029. A     1         1
##  4     7 -18547. A     1         1
##  5     9  79924. A     1         1
##  6    11  -2824. A     1         1
##  7    13 -78017. A     1         1
##  8    15 -74281. A     1         1
##  9    17   9904. A     1         1
## 10    19 -94023. A     1         1
## # ... with 40 more rows
## [1] "Input 'data' to 'compute_group()':"
## # A tibble: 50 x 5
##        x        y shape PANEL group
##  * <dbl>    <dbl> <fct> <fct> <int>
##  1     2  -14243. B     1         2
##  2     4   53731. B     1         2
##  3     6  102864. B     1         2
##  4     8   13081. B     1         2
##  5    10  -44711. B     1         2
##  6    12   23840. B     1         2
##  7    14   75602. B     1         2
##  8    16  104677. B     1         2
##  9    18  -68747. B     1         2
## 10    20  -39230. B     1         2
## # ... with 40 more rows
…
If we use as geom "label" or "text" a debug summary is added to the plot itself, we can use other arguments valid for the geom used, in this case vjust.

ggplot(my.data, aes(x, y, shape = group)) + geom_point() + 
  stat_debug_group(geom = "label", vjust = c(-0.5,1.5))

## [1] "Input 'data' to 'compute_group()':"
## # A tibble: 50 x 5
##        x       y shape PANEL group
##  * <dbl>   <dbl> <fct> <fct> <int>
##  1     1 -27205. A     1         1
##  2     3  45791. A     1         1
##  3     5  -8029. A     1         1
##  4     7 -18547. A     1         1
##  5     9  79924. A     1         1
##  6    11  -2824. A     1         1
##  7    13 -78017. A     1         1
##  8    15 -74281. A     1         1
##  9    17   9904. A     1         1
## 10    19 -94023. A     1         1
## # ... with 40 more rows
## [1] "Input 'data' to 'compute_group()':"
## # A tibble: 50 x 5
##        x        y shape PANEL group
##  * <dbl>    <dbl> <fct> <fct> <int>
##  1     2  -14243. B     1         2
##  2     4   53731. B     1         2
##  3     6  102864. B     1         2
##  4     8   13081. B     1         2
##  5    10  -44711. B     1         2
##  6    12   23840. B     1         2
##  7    14   75602. B     1         2
##  8    16  104677. B     1         2
##  9    18  -68747. B     1         2
## 10    20  -39230. B     1         2
## # ... with 40 more rows
…
The default.

ggplot(my.data, aes(x, y)) + geom_point() + 
  stat_debug_group(summary.fun = as_tibble)

## [1] "Input 'data' to 'compute_group()':"
## # A tibble: 100 x 4
##        x        y PANEL group
##  * <dbl>    <dbl> <fct> <int>
##  1     1  -27205. 1        -1
##  2     2  -14243. 1        -1
##  3     3   45791. 1        -1
##  4     4   53731. 1        -1
##  5     5   -8029. 1        -1
##  6     6  102864. 1        -1
##  7     7  -18547. 1        -1
##  8     8   13081. 1        -1
##  9     9   79924. 1        -1
## 10    10  -44711. 1        -1
## # ... with 90 more rows
…
And also to print to the console the data returned by a stat.

ggplot(my.data, aes(x, y, colour = group)) + geom_point() + 
  stat_smooth(method = "lm", geom = "debug")

## # A tibble: 160 x 8
##    colour      x        y     ymin     ymax     se PANEL group
##    <chr>   <dbl>    <dbl>    <dbl>    <dbl>  <dbl> <fct> <int>
##  1 #F8766D  1    -188136. -254711. -121562. 33111. 1         1
##  2 #F8766D  2.24 -176933. -242260. -111606. 32491. 1         1
##  3 #F8766D  3.48 -165730. -229819. -101641. 31875. 1         1
##  4 #F8766D  4.72 -154527. -217387.  -91668. 31263. 1         1
##  5 #F8766D  5.96 -143324. -204964.  -81684. 30657. 1         1
##  6 #F8766D  7.20 -132121. -192552.  -71691. 30055. 1         1
##  7 #F8766D  8.44 -120918. -180150.  -61686. 29459. 1         1
##  8 #F8766D  9.68 -109715. -167760.  -51670. 28869. 1         1
##  9 #F8766D 10.9   -98512. -155383.  -41642. 28285. 1         1
## 10 #F8766D 12.2   -87309. -143019.  -31600. 27707. 1         1
## # ... with 150 more rows
…
